17.108.0.0/16
17.102.0.0/16
17.207.0.0/16
17.250.48.0/24
17.252.65.0/24
17.86.0.0/17
17.86.0.0/18
17.86.64.0/18
17.86.0.0/19
17.86.32.0/19
17.86.64.0/19
17.86.96.0/19
17.86.0.0/20
17.86.16.0/20
17.86.32.0/20
17.86.48.0/20
17.86.64.0/20
17.86.80.0/20
17.86.96.0/20
17.86.112.0/20
17.86.0.0/21
17.86.8.0/21
17.86.16.0/21
17.86.24.0/21
17.86.32.0/21
17.86.40.0/21
17.86.48.0/21
17.86.56.0/21
17.86.64.0/21
17.86.72.0/21
17.86.80.0/21
17.86.88.0/21
17.86.96.0/21
17.86.104.0/21
17.86.112.0/21
17.86.120.0/21
17.86.0.0/22
17.86.4.0/22
17.86.8.0/22
17.86.12.0/22
17.86.16.0/22
17.86.20.0/22
17.86.24.0/22
17.86.28.0/22
17.86.32.0/22
17.86.36.0/22
17.86.40.0/22
17.86.44.0/22
17.86.48.0/22
17.86.52.0/22
17.86.56.0/22
17.86.60.0/22
17.86.64.0/22
17.86.68.0/22
17.86.72.0/22
17.86.76.0/22
17.86.80.0/22
17.86.84.0/22
17.86.88.0/22
17.86.92.0/22
17.86.96.0/22
17.86.100.0/22
17.86.104.0/22
17.86.108.0/22
17.86.112.0/22
17.86.116.0/22
17.86.120.0/22
17.86.124.0/22
17.86.0.0/23
17.86.2.0/23
17.86.128.0/17
17.86.4.0/23
17.86.128.0/18
17.86.6.0/23
17.86.192.0/18
17.86.8.0/23
17.86.128.0/19
17.86.10.0/23
17.86.160.0/19
17.86.12.0/23
17.86.192.0/19
17.86.14.0/23
17.86.224.0/19
17.86.16.0/23
17.86.128.0/20
17.86.18.0/23
17.86.144.0/20
17.86.20.0/23
17.86.160.0/20
17.86.22.0/23
17.86.176.0/20
17.86.24.0/23
17.86.192.0/20
17.86.26.0/23
17.86.208.0/20
17.86.28.0/23
17.86.224.0/20
17.86.30.0/23
17.86.240.0/20
17.86.32.0/23
17.86.128.0/21
17.86.34.0/23
17.86.136.0/21
17.86.36.0/23
17.86.144.0/21
17.86.38.0/23
17.86.152.0/21
17.86.40.0/23
17.86.160.0/21
17.86.42.0/23
17.86.168.0/21
17.86.44.0/23
17.86.176.0/21
17.86.46.0/23
17.86.184.0/21
17.86.48.0/23
17.86.192.0/21
17.86.50.0/23
17.86.200.0/21
17.86.52.0/23
17.86.208.0/21
17.86.54.0/23
17.86.216.0/21
17.86.56.0/23
17.86.224.0/21
17.86.58.0/23
17.86.232.0/21
17.86.60.0/23
17.86.240.0/21
17.86.62.0/23
17.86.248.0/21
17.86.64.0/23
17.86.128.0/22
17.86.66.0/23
17.86.136.0/22
17.86.68.0/23
17.86.140.0/22
17.86.70.0/23
17.86.144.0/22
17.86.72.0/23
17.86.148.0/22
17.86.74.0/23
17.86.152.0/22
17.86.76.0/23
17.86.156.0/22
17.86.78.0/23
17.86.160.0/22
17.86.80.0/23
17.86.164.0/22
17.86.82.0/23
17.86.168.0/22
17.86.84.0/23
17.86.172.0/22
17.86.86.0/23
17.86.176.0/22
17.86.88.0/23
17.86.180.0/22
17.86.90.0/23
17.86.184.0/22
17.86.92.0/23
17.86.188.0/22
17.86.94.0/23
17.86.192.0/22
17.86.96.0/23
17.86.196.0/22
17.86.98.0/23
17.86.200.0/22
17.86.100.0/23
17.86.204.0/22
17.86.102.0/23
17.86.208.0/22
17.86.104.0/23
17.86.212.0/22
17.86.106.0/23
17.86.216.0/22
17.86.108.0/23
17.86.220.0/22
17.86.110.0/23
17.86.224.0/22
17.86.112.0/23
17.86.228.0/22
17.86.114.0/23
17.86.232.0/22
17.86.116.0/23
17.86.236.0/22
17.86.118.0/23
17.86.240.0/22
17.86.120.0/23
17.86.244.0/22
17.86.122.0/23
17.86.248.0/22
17.86.124.0/23
17.86.252.0/22
17.86.126.0/23
17.86.128.0/23
17.86.0.0/24
17.86.130.0/23
17.86.1.0/24
17.86.132.0/23
17.86.2.0/24
17.86.134.0/23
17.86.3.0/24
17.86.136.0/23
17.86.4.0/24
17.86.138.0/23
17.86.5.0/24
17.86.140.0/23
17.86.6.0/24
17.86.142.0/23
17.86.7.0/24
17.86.144.0/23
17.86.8.0/24
17.86.146.0/23
17.86.9.0/24
17.86.148.0/23
17.86.10.0/24
17.86.150.0/23
17.86.11.0/24
17.86.152.0/23
17.86.12.0/24
17.86.154.0/23
17.86.13.0/24
17.86.156.0/23
17.86.14.0/24
17.86.158.0/23
17.86.15.0/24
17.86.160.0/23
17.86.16.0/24
17.86.162.0/23
17.86.17.0/24
17.86.164.0/23
17.86.18.0/24
17.86.166.0/23
17.86.19.0/24
17.86.168.0/23
17.86.20.0/24
17.86.170.0/23
17.86.21.0/24
17.86.172.0/23
17.86.22.0/24
17.86.174.0/23
17.86.23.0/24
17.86.176.0/23
17.86.24.0/24
17.86.178.0/23
17.86.25.0/24
17.86.180.0/23
17.86.26.0/24
17.86.182.0/23
17.86.27.0/24
17.86.184.0/23
17.86.28.0/24
17.86.186.0/23
17.86.29.0/24
17.86.188.0/23
17.86.30.0/24
17.86.190.0/23
17.86.31.0/24
17.86.192.0/23
17.86.32.0/24
17.86.194.0/23
17.86.33.0/24
17.86.196.0/23
17.86.34.0/24
17.86.198.0/23
17.86.35.0/24
17.86.200.0/23
17.86.36.0/24
17.86.202.0/23
17.86.37.0/24
17.86.204.0/23
17.86.38.0/24
17.86.206.0/23
17.86.39.0/24
17.86.208.0/23
17.86.40.0/24
17.86.210.0/23
17.86.41.0/24
17.86.212.0/23
17.86.42.0/24
17.86.214.0/23
17.86.43.0/24
17.86.216.0/23
17.86.44.0/24
17.86.218.0/23
17.86.45.0/24
17.86.220.0/23
17.86.46.0/24
17.86.222.0/23
17.86.47.0/24
17.86.224.0/23
17.86.48.0/24
17.86.226.0/23
17.86.49.0/24
17.86.228.0/23
17.86.50.0/24
17.86.230.0/23
17.86.51.0/24
17.86.232.0/23
17.86.52.0/24
17.86.234.0/23
17.86.53.0/24
17.86.236.0/23
17.86.54.0/24
17.86.238.0/23
17.86.55.0/24
17.86.240.0/23
17.86.56.0/24
17.86.242.0/23
17.86.57.0/24
17.86.244.0/23
17.86.58.0/24
17.86.246.0/23
17.86.59.0/24
17.86.248.0/23
17.86.60.0/24
17.86.250.0/23
17.86.61.0/24
17.86.252.0/23
17.86.62.0/24
17.86.254.0/23
17.86.63.0/24
17.86.128.0/24
17.86.64.0/24
17.86.129.0/24
17.86.65.0/24
17.86.130.0/24
17.86.66.0/24
17.86.131.0/24
17.86.67.0/24
17.86.132.0/24
17.86.68.0/24
17.86.133.0/24
17.86.69.0/24
17.86.134.0/24
17.86.70.0/24
17.86.135.0/24
17.86.71.0/24
17.86.136.0/24
17.86.72.0/24
17.86.137.0/24
17.86.73.0/24
17.86.138.0/24
17.86.74.0/24
17.86.139.0/24
17.86.75.0/24
17.86.140.0/24
17.86.76.0/24
17.86.141.0/24
17.86.77.0/24
17.86.142.0/24
17.86.78.0/24
17.86.143.0/24
17.86.79.0/24
17.86.144.0/24
17.86.80.0/24
17.86.145.0/24
17.86.81.0/24
17.86.146.0/24
17.86.82.0/24
17.86.147.0/24
17.86.83.0/24
17.86.148.0/24
17.86.84.0/24
17.86.149.0/24
17.86.85.0/24
17.86.150.0/24
17.86.86.0/24
17.86.151.0/24
17.86.87.0/24
17.86.152.0/24
17.86.88.0/24
17.86.153.0/24
17.86.89.0/24
17.86.154.0/24
17.86.90.0/24
17.86.155.0/24
17.86.91.0/24
17.86.156.0/24
17.86.92.0/24
17.86.157.0/24
17.86.93.0/24
17.86.158.0/24
17.86.94.0/24
17.86.159.0/24
17.86.95.0/24
17.86.160.0/24
17.86.96.0/24
17.86.161.0/24
17.86.97.0/24
17.86.162.0/24
17.86.98.0/24
17.86.163.0/24
17.86.99.0/24
17.86.164.0/24
17.86.100.0/24
17.86.165.0/24
17.86.101.0/24
17.86.166.0/24
17.86.102.0/24
17.86.167.0/24
17.86.103.0/24
17.86.168.0/24
17.86.104.0/24
17.86.169.0/24
17.86.105.0/24
17.86.170.0/24
17.86.106.0/24
17.86.171.0/24
17.86.107.0/24
17.86.172.0/24
17.86.108.0/24
17.86.173.0/24
17.86.109.0/24
17.86.174.0/24
17.86.110.0/24
17.86.175.0/24
17.86.111.0/24
17.86.176.0/24
17.86.112.0/24
17.86.177.0/24
17.86.113.0/24
17.86.178.0/24
17.86.114.0/24
17.86.179.0/24
17.86.115.0/24
17.86.180.0/24
17.86.116.0/24
17.86.181.0/24
17.86.117.0/24
17.86.182.0/24
17.86.118.0/24
17.86.183.0/24
17.86.119.0/24
17.86.184.0/24
17.86.120.0/24
17.86.185.0/24
17.86.121.0/24
17.86.186.0/24
17.86.122.0/24
17.86.187.0/24
17.86.123.0/24
17.86.188.0/24
17.86.124.0/24
17.86.189.0/24
17.86.125.0/24
17.86.190.0/24
17.86.126.0/24
17.86.191.0/24
17.86.127.0/24
17.86.192.0/24
17.86.193.0/24
17.86.194.0/24
17.86.195.0/24
17.86.196.0/24
17.86.197.0/24
17.86.198.0/24
17.86.199.0/24
17.86.200.0/24
17.86.201.0/24
17.86.202.0/24
17.86.203.0/24
17.86.204.0/24
17.86.205.0/24
17.86.206.0/24
17.86.207.0/24
17.86.208.0/24
17.86.209.0/24
17.86.210.0/24
17.86.211.0/24
17.86.212.0/24
17.86.213.0/24
17.86.214.0/24
17.86.215.0/24
17.86.216.0/24
17.86.217.0/24
17.86.218.0/24
17.86.219.0/24
17.86.220.0/24
17.86.221.0/24
17.86.222.0/24
17.86.223.0/24
17.86.224.0/24
17.86.225.0/24
17.86.226.0/24
17.86.227.0/24
17.86.228.0/24
17.86.229.0/24
17.86.230.0/24
17.86.231.0/24
17.86.232.0/24
17.86.233.0/24
17.86.234.0/24
17.86.235.0/24
17.86.236.0/24
17.86.237.0/24
17.86.238.0/24
17.86.239.0/24
17.86.240.0/24
17.86.241.0/24
17.86.242.0/24
17.86.243.0/24
17.86.244.0/24
17.86.245.0/24
17.86.246.0/24
17.86.247.0/24
17.86.248.0/24
17.86.249.0/24
17.86.250.0/24
17.86.251.0/24
17.86.252.0/24
17.86.253.0/24
17.86.254.0/24
17.86.255.0/24
17.250.248.0/23
17.250.48.0/23
17.64.0.0/16
17.65.0.0/16
17.66.0.0/17
17.67.232.0/22
17.67.236.0/22
17.70.0.0/16
17.71.0.0/16
17.72.0.0/16
17.74.0.0/16
17.76.0.0/16
17.78.0.0/16
17.79.0.0/16
17.232.0.0/16
17.240.0.0/16
17.241.0.0/16
17.152.0.0/16
17.153.0.0/16
17.113.0.0/16
17.27.0.0/16
17.116.0.0/16
17.109.0.0/16
17.219.100.0/22
17.31.0.0/16
17.78.224.0/20
17.45.22.0/23
17.45.132.0/23
17.45.20.0/23
17.45.24.0/23
17.45.26.0/23
17.45.28.0/23
17.45.30.0/23
17.45.32.0/23
17.45.48.0/21
17.45.56.0/21
17.45.128.0/23
17.45.130.0/23
17.45.134.0/23
17.45.136.0/23
17.45.138.0/23
17.45.144.0/22
17.45.160.0/21
17.45.168.0/21
17.45.176.0/21
17.45.184.0/21
17.45.200.0/21
17.45.240.0/20
17.45.36.0/22
17.77.133.0/24
17.78.32.0/21
17.130.0.0/17
17.132.0.0/17
17.132.32.0/19
17.112.0.0/16
17.254.0.0/24
17.254.1.0/24
17.254.2.0/24
17.254.4.0/22
17.254.3.0/24
17.254.4.0/24
17.112.128.0/17
17.254.8.0/22
17.254.8.0/24
17.250.128.0/17
17.252.128.0/17
17.249.128.0/17
198.183.16.0/24
17.200.0.0/14
17.200.0.0/16
17.201.0.0/16
17.202.0.0/16
205.180.175.0/24
17.203.0.0/16
17.250.0.0/16
17.126.0.0/15
17.126.0.0/16
17.103.0.0/16
17.104.0.0/16
17.126.0.0/22
17.112.140.0/24
17.112.140.0/22
17.64.0.0/12
17.87.0.0/16
17.81.0.0/16
17.86.0.0/16
17.254.48.0/23
17.254.248.0/23
17.254.32.0/24
17.239.0.0/16
17.64.0.0/15
17.67.240.0/22
17.67.248.0/22
17.69.4.0/22
17.69.8.0/22
17.69.10.0/23
17.69.16.0/22
17.69.20.0/22
17.69.32.0/22
17.69.36.0/22
17.69.40.0/22
17.69.44.0/22
17.69.60.0/22
17.69.100.0/22
17.69.104.0/22
17.69.112.0/22
17.69.116.0/22
17.69.156.0/22
17.69.160.0/22
17.69.164.0/22
17.69.232.0/21
17.70.100.0/22
17.72.0.0/13
17.73.0.0/17
17.73.128.0/17
17.76.20.0/22
17.76.24.0/22
17.77.32.0/22
17.78.124.0/22
17.154.0.0/16
17.66.0.0/16
17.66.116.0/22
17.69.56.0/22
17.74.220.0/22
17.74.224.0/22
17.76.48.0/22
17.79.8.0/22
17.90.0.0/15
17.134.0.0/17
17.78.128.0/21
17.78.144.0/21
17.78.140.0/22
17.88.0.0/16
17.78.138.0/23
17.78.138.0/24
17.78.139.0/24
17.254.252.0/24
17.254.254.0/24
17.254.253.0/24
17.254.255.0/24
17.67.212.0/22
17.67.216.0/21
17.232.0.0/15
17.240.0.0/15
17.44.0.0/15
17.132.128.0/17
17.132.128.0/18
17.132.192.0/18
17.46.0.0/16
17.85.0.0/16
17.193.12.0/22
17.195.12.0/22
17.195.96.0/21
17.254.20.0/22
17.185.0.0/16
17.235.224.0/20
17.235.240.0/20
17.69.34.0/24
17.69.35.0/24
17.255.248.0/23
17.255.250.0/23
144.178.0.0/18
17.0.0.0/8
17.0.0.0/9
17.0.0.0/21
17.0.64.0/18
17.0.128.0/18
17.0.225.0/24
17.1.0.0/19
17.1.64.0/18
17.1.64.0/24
17.1.74.0/24
17.1.78.0/24
17.1.86.0/24
17.1.100.0/24
17.1.102.0/24
17.1.111.0/24
17.1.128.0/18
17.1.128.0/24
17.1.134.0/24
17.1.144.0/24
17.1.146.0/24
17.1.148.0/24
17.1.150.0/24
17.1.152.0/24
17.1.154.0/24
17.1.158.0/24
17.1.160.0/24
17.1.162.0/24
17.1.164.0/24
17.1.166.0/24
17.1.168.0/24
17.1.172.0/24
17.1.176.0/24
17.1.178.0/24
17.1.180.0/24
17.1.182.0/24
17.1.186.0/24
17.1.190.0/24
17.1.193.0/24
17.1.197.0/24
17.1.250.0/23
17.16.0.0/12
17.16.48.0/21
17.16.64.0/21
17.16.72.0/21
17.16.80.0/21
17.16.88.0/21
17.16.96.0/21
17.16.104.0/21
17.16.112.0/21
17.16.120.0/21
17.16.128.0/21
17.16.136.0/21
17.16.144.0/21
17.16.152.0/21
17.16.160.0/21
17.16.168.0/21
17.16.176.0/21
17.16.184.0/21
17.16.192.0/21
17.16.200.0/21
17.16.208.0/21
17.16.216.0/21
17.16.216.0/23
17.16.224.0/21
17.16.232.0/21
17.16.240.0/21
17.16.248.0/21
17.17.0.0/21
17.17.8.0/21
17.17.24.0/21
17.17.32.0/21
17.17.40.0/21
17.17.48.0/21
17.17.56.0/21
17.17.64.0/21
17.17.72.0/21
17.17.80.0/21
17.17.88.0/21
17.17.96.0/21
17.17.104.0/21
17.17.112.0/21
17.17.120.0/21
17.17.128.0/21
17.17.136.0/21
17.17.144.0/21
17.17.152.0/21
17.17.152.0/23
17.17.160.0/21
17.17.168.0/21
17.17.176.0/21
17.17.184.0/21
17.17.192.0/21
17.17.200.0/21
17.17.208.0/21
17.17.216.0/21
17.17.224.0/21
17.17.232.0/21
17.17.240.0/21
17.17.248.0/21
17.18.0.0/21
17.18.0.0/24
17.18.8.0/21
17.18.16.0/21
17.18.24.0/21
17.18.32.0/21
17.18.40.0/21
17.18.56.0/21
17.18.64.0/21
17.18.72.0/21
17.18.80.0/21
17.18.88.0/21
17.18.96.0/21
17.18.104.0/21
17.18.112.0/21
17.18.120.0/21
17.18.128.0/21
17.18.136.0/21
17.18.144.0/21
17.18.160.0/21
17.18.168.0/21
17.18.176.0/21
17.18.184.0/21
17.18.192.0/21
17.18.200.0/21
17.18.208.0/21
17.18.208.0/24
17.18.216.0/21
17.18.224.0/21
17.18.232.0/21
17.18.240.0/21
17.18.248.0/21
17.19.0.0/21
17.19.8.0/21
17.19.16.0/21
17.19.24.0/21
17.19.32.0/21
17.19.40.0/21
17.19.48.0/21
17.19.56.0/21
17.19.64.0/21
17.19.72.0/21
17.19.80.0/21
17.19.88.0/21
17.19.96.0/21
17.19.104.0/21
17.19.112.0/21
17.19.120.0/21
17.19.128.0/21
17.19.136.0/21
17.19.144.0/21
17.19.152.0/21
17.19.160.0/21
17.19.168.0/21
17.19.176.0/21
17.19.184.0/21
17.19.192.0/21
17.19.200.0/21
17.19.208.0/21
17.19.216.0/21
17.19.224.0/21
17.19.232.0/21
17.19.240.0/21
17.19.248.0/21
17.20.0.0/21
17.20.8.0/21
17.20.16.0/21
17.20.24.0/21
17.20.32.0/21
17.20.40.0/21
17.20.48.0/21
17.20.56.0/21
17.20.64.0/21
17.20.72.0/21
17.20.80.0/21
17.20.88.0/21
17.20.96.0/21
17.20.104.0/21
17.20.112.0/21
17.20.120.0/21
17.20.128.0/21
17.20.136.0/21
17.20.152.0/21
17.20.160.0/21
17.20.168.0/21
17.20.176.0/21
17.20.192.0/21
17.20.200.0/21
17.20.208.0/21
17.20.216.0/21
17.20.224.0/21
17.20.232.0/21
17.20.240.0/21
17.20.248.0/21
17.21.8.0/21
17.21.16.0/21
17.21.24.0/21
17.21.32.0/21
17.21.40.0/21
17.21.48.0/21
17.21.56.0/21
17.21.64.0/21
17.21.72.0/21
17.21.80.0/21
17.21.88.0/21
17.21.96.0/21
17.21.104.0/21
17.21.112.0/21
17.21.120.0/21
17.21.128.0/21
17.21.136.0/21
17.21.152.0/21
17.21.160.0/21
17.21.168.0/21
17.24.0.0/13
17.24.64.0/21
17.24.80.0/21
17.24.104.0/21
17.24.112.0/21
17.24.120.0/21
17.24.136.0/21
17.24.144.0/21
17.24.160.0/21
17.24.176.0/21
17.24.184.0/21
17.24.200.0/21
17.24.216.0/21
17.24.224.0/21
17.24.240.0/21
17.24.248.0/21
17.25.0.0/21
17.25.8.0/21
17.25.24.0/21
17.25.32.0/21
17.25.40.0/21
17.25.112.0/21
17.25.120.0/21
17.25.136.0/21
17.25.144.0/21
17.25.192.0/21
17.25.200.0/21
17.25.208.0/21
17.25.216.0/21
17.25.224.0/21
17.25.232.0/21
17.25.248.0/21
17.26.16.0/21
17.26.24.0/21
17.26.32.0/21
17.26.56.0/21
17.26.64.0/21
17.26.72.0/21
17.26.88.0/21
17.26.96.0/21
17.26.104.0/21
17.26.168.0/21
17.26.200.0/21
17.26.216.0/21
17.26.224.0/21
17.26.240.0/21
17.26.248.0/21
17.27.16.0/21
17.27.32.0/21
17.27.56.0/21
17.27.80.0/21
17.27.88.0/21
17.27.96.0/21
17.27.112.0/21
17.27.136.0/21
17.27.152.0/21
17.27.168.0/21
17.27.192.0/21
17.27.200.0/21
17.27.224.0/21
17.27.240.0/21
17.28.56.0/21
17.28.88.0/21
17.28.96.0/21
17.28.104.0/21
17.28.112.0/21
17.28.128.0/21
17.28.152.0/21
17.32.0.0/16
17.34.0.0/16
17.35.240.0/20
17.36.0.0/15
17.38.0.0/15
17.40.0.0/15
17.42.0.0/16
17.43.0.0/16
17.43.0.0/17
17.43.0.0/19
17.43.128.0/17
17.44.0.0/16
17.44.0.0/17
17.44.88.0/21
17.44.128.0/17
17.44.160.0/22
17.44.176.0/21
17.44.216.0/21
17.45.0.0/16
17.45.0.0/17
17.45.44.0/22
17.45.112.0/20
17.45.128.0/17
17.45.152.0/22
17.45.156.0/22
17.45.192.0/21
17.45.224.0/20
17.45.252.0/22
17.47.0.0/20
17.47.1.0/24
17.47.2.0/24
17.47.3.0/24
17.47.48.0/24
17.47.49.0/24
17.47.126.0/23
17.47.128.0/17
17.50.0.0/16
17.50.16.0/21
17.50.24.0/21
17.50.48.0/21
17.56.0.0/22
17.56.8.0/24
17.56.10.0/23
17.56.12.0/23
17.56.16.0/24
17.56.48.0/21
17.56.128.0/22
17.56.136.0/24
17.56.138.0/23
17.56.140.0/23
17.56.144.0/24
17.56.160.0/23
17.57.0.0/22
17.57.8.0/24
17.57.12.0/23
17.57.16.0/24
17.57.32.0/21
17.58.0.0/20
17.58.16.0/20
17.58.32.0/20
17.58.64.0/21
17.58.72.0/22
17.58.76.0/22
17.58.80.0/20
17.58.96.0/21
17.58.128.0/18
17.67.0.0/16
17.67.32.0/20
17.67.48.0/20
17.67.80.0/20
17.67.104.0/21
17.67.120.0/22
17.67.128.0/18
17.67.192.0/22
17.67.196.0/23
17.67.198.0/23
17.67.200.0/22
17.67.204.0/22
17.67.208.0/22
17.67.224.0/20
17.67.244.0/22
17.68.0.0/16
17.69.0.0/16
17.69.32.0/24
17.69.33.0/24
17.69.192.0/20
17.69.208.0/21
17.69.224.0/21
17.69.232.0/22
17.69.236.0/22
17.69.240.0/21
17.70.0.0/15
17.72.64.0/18
17.72.64.0/19
17.72.96.0/19
17.73.0.0/16
17.74.0.0/15
17.77.0.0/16
17.77.0.0/17
17.77.128.0/17
17.78.192.0/20
17.78.200.0/23
17.78.208.0/21
17.78.224.0/19
17.78.232.0/23
17.82.0.0/16
17.83.0.0/16
17.83.0.0/17
17.83.55.0/24
17.83.128.0/17
17.84.0.0/16
17.84.128.0/23
17.84.143.0/24
17.84.192.0/22
17.84.196.0/23
17.84.198.0/24
17.84.199.0/24
17.84.200.0/21
17.84.208.0/24
17.85.128.0/17
17.87.0.0/17
17.87.128.0/17
17.88.0.0/17
17.88.128.0/17
17.91.16.0/21
17.91.24.0/21
17.91.32.0/21
17.91.40.0/21
17.91.48.0/21
17.91.56.0/21
17.91.72.0/21
17.91.80.0/21
17.91.88.0/21
17.91.96.0/21
17.91.104.0/21
17.91.136.0/21
17.91.144.0/21
17.91.160.0/21
17.91.168.0/21
17.91.176.0/21
17.91.200.0/21
17.92.0.0/17
17.92.128.0/17
17.93.0.0/16
17.94.0.0/16
17.96.0.0/16
17.97.0.0/16
17.97.128.0/19
17.97.176.0/20
17.98.0.0/16
17.99.0.0/16
17.106.0.0/15
17.108.0.0/15
17.110.0.0/15
17.110.112.0/20
17.111.2.0/23
17.112.0.0/15
17.113.128.0/17
17.114.0.0/15
17.120.0.0/16
17.121.0.0/18
17.121.128.0/17
17.122.0.0/18
17.122.0.0/20
17.122.16.0/20
17.122.33.0/24
17.122.64.0/18
17.122.192.0/20
17.122.248.0/21
17.123.0.0/18
17.123.0.0/20
17.123.16.0/24
17.123.64.0/18
17.124.0.0/16
17.125.0.0/16
17.127.64.0/20
17.128.0.0/9
17.128.100.0/22
17.128.106.0/23
17.128.108.0/22
17.128.112.0/22
17.128.124.0/23
17.128.126.0/24
17.129.0.0/16
17.130.0.0/16
17.131.0.0/16
17.132.4.0/22
17.132.4.0/24
17.132.5.0/24
17.132.6.0/24
17.132.18.0/24
17.132.19.0/24
17.132.20.0/23
17.132.22.0/23
17.132.24.0/24
17.132.25.0/24
17.132.26.0/24
17.132.27.0/24
17.132.28.0/22
17.132.28.0/24
17.132.29.0/24
17.132.30.0/24
17.132.31.0/24
17.132.64.0/18
17.132.91.0/24
17.132.96.0/20
17.133.0.0/16
17.134.0.0/16
17.135.0.0/16
17.136.0.0/16
17.137.0.0/16
17.138.0.0/15
17.139.32.0/20
17.140.0.0/19
17.140.32.0/21
17.140.34.0/23
17.140.40.0/21
17.140.42.0/24
17.140.44.0/24
17.140.48.0/20
17.140.64.0/19
17.140.80.0/20
17.140.96.0/19
17.140.128.0/17
17.141.0.0/16
17.142.0.0/15
17.144.0.0/16
17.146.0.0/16
17.147.0.0/16
17.148.0.0/14
17.152.0.0/14
17.158.0.0/15
17.160.0.0/12
17.164.0.0/14
17.168.0.0/13
17.171.63.0/24
17.173.232.0/21
17.176.0.0/15
17.178.0.0/15
17.179.78.0/24
17.180.0.0/14
17.184.0.0/16
17.186.0.0/16
17.187.0.0/24
17.187.48.0/20
17.187.128.0/18
17.187.192.0/18
17.188.66.0/24
17.188.67.0/24
17.188.68.0/23
17.188.70.0/23
17.188.128.0/20
17.188.144.0/20
17.188.160.0/20
17.188.192.0/22
17.188.192.0/24
17.188.193.0/24
17.188.194.0/24
17.188.195.0/24
17.188.196.0/22
17.188.196.0/24
17.188.197.0/24
17.188.198.0/24
17.188.199.0/24
17.188.200.0/21
17.188.208.0/21
17.193.0.0/18
17.197.0.0/16
17.197.165.0/24
17.197.166.0/24
17.198.0.0/15
17.198.180.0/24
17.198.181.0/24
17.199.166.0/24
17.200.0.0/13
17.200.64.0/20
17.200.112.0/21
17.200.120.0/21
17.207.48.0/24
17.207.49.0/24
17.208.0.0/15
17.209.75.0/24
17.209.77.0/24
17.209.156.0/22
17.209.176.0/22
17.209.202.0/24
17.211.0.0/19
17.211.128.0/20
17.212.0.0/14
17.216.0.0/13
17.216.0.0/16
17.218.20.0/24
17.218.21.0/24
17.220.176.0/24
17.220.177.0/24
17.224.0.0/14
17.225.16.0/24
17.225.17.0/24
17.226.7.0/24
17.228.0.0/15
17.229.102.0/24
17.229.103.0/24
17.231.64.0/18
17.233.0.0/16
17.233.112.0/21
17.233.120.0/21
17.233.240.0/24
17.233.241.0/24
17.233.242.0/24
17.233.243.0/24
17.234.0.0/17
17.234.0.0/20
17.234.16.0/20
17.234.32.0/20
17.234.48.0/20
17.234.64.0/20
17.234.80.0/20
17.234.96.0/20
17.234.112.0/20
17.234.128.0/20
17.234.144.0/20
17.234.160.0/20
17.234.176.0/20
17.234.192.0/20
17.234.208.0/20
17.234.224.0/20
17.234.240.0/20
17.235.0.0/18
17.235.0.0/20
17.235.16.0/20
17.235.32.0/20
17.235.48.0/20
17.235.128.0/20
17.235.144.0/20
17.235.192.0/20
17.235.208.0/20
17.236.0.0/15
17.238.0.0/15
17.242.16.0/20
17.242.32.0/20
17.242.48.0/20
17.242.120.0/21
17.244.0.0/14
17.248.128.0/17
17.248.128.0/19
17.248.142.0/24
17.248.143.0/24
17.248.144.0/21
17.248.148.0/24
17.248.150.0/24
17.248.160.0/24
17.248.161.0/24
17.248.184.0/24
17.248.185.0/24
17.248.192.0/24
17.249.0.0/16
17.249.0.0/20
17.249.13.0/24
17.249.16.0/20
17.249.32.0/20
17.249.48.0/20
17.249.64.0/20
17.249.80.0/20
17.249.96.0/20
17.249.112.0/20
17.249.125.0/24
17.249.128.0/20
17.249.144.0/20
17.249.160.0/20
17.249.176.0/20
17.249.192.0/20
17.249.208.0/20
17.249.224.0/21
17.250.0.0/24
17.250.4.0/24
17.250.8.0/24
17.250.9.0/24
17.250.10.0/23
17.250.12.0/23
17.250.14.0/23
17.250.16.0/20
17.250.32.0/20
17.251.0.0/16
17.252.0.0/16
17.252.0.0/20
17.252.16.0/20
17.252.32.0/20
17.252.48.0/20
17.252.64.0/20
17.252.80.0/20
17.252.96.0/20
17.252.128.0/20
17.252.144.0/20
17.252.160.0/19
17.252.192.0/20
17.252.208.0/20
17.252.224.0/20
17.253.0.0/16
17.253.128.0/21
17.253.144.0/21
17.253.200.0/24
17.253.201.0/24
17.253.206.0/24
17.253.207.0/24
17.253.216.0/23
17.254.0.0/22
17.254.6.0/24
17.254.13.0/24
17.254.16.0/24
17.254.19.0/24
17.254.32.0/22
17.255.0.0/16
17.255.232.0/22
17.255.236.0/22
17.255.243.0/24
17.255.244.0/22
17.255.252.0/22
17.255.254.0/24
17.255.255.0/24
144.178.0.0/19
192.35.50.0/24
198.183.17.0/24
17.0.224.0/24
17.0.71.0/24
17.0.99.0/24
17.0.109.0/24
17.0.120.0/24
17.0.153.0/24
17.0.176.0/20
17.1.71.0/24
17.1.98.0/24
17.1.106.0/24
17.1.114.0/24
17.1.170.0/24
17.1.184.0/24
17.16.0.0/13
17.29.0.0/20
17.29.16.0/20
17.29.112.0/23
17.29.120.0/24
17.29.121.0/24
17.29.122.0/24
17.29.224.0/24
17.29.225.0/24
17.29.226.0/24
17.29.227.0/24
17.29.228.0/24
17.29.229.0/24
17.29.230.0/24
17.29.233.0/24
17.29.234.0/24
17.29.237.0/24
17.29.239.0/24
17.33.1.0/24
17.33.6.0/24
17.43.64.0/19
17.43.76.0/24
17.43.112.0/21
17.43.132.0/22
17.43.176.0/21
17.44.8.0/22
17.44.19.0/24
17.44.24.0/22
17.44.80.0/20
17.44.156.0/22
17.44.224.0/20
17.45.157.0/24
17.45.159.0/24
17.45.186.0/23
17.47.5.0/24
17.47.6.0/24
17.47.7.0/24
17.47.8.0/24
17.47.12.0/24
17.47.50.0/24
17.48.3.0/24
17.48.16.0/21
17.48.30.0/24
17.56.128.0/19
17.57.8.0/23
17.57.10.0/23
17.57.18.0/24
17.57.19.0/24
17.57.128.0/21
17.57.136.0/21
17.58.48.0/23
17.58.57.0/24
17.58.58.0/24
17.58.59.0/24
17.58.61.0/24
17.58.62.0/24
17.58.63.0/24
17.58.104.0/23
17.58.106.0/24
17.58.108.0/23
17.67.124.0/22
17.67.252.0/22
17.69.176.0/20
17.76.0.0/23
17.76.2.0/23
17.76.16.0/20
17.76.32.0/19
17.76.64.0/23
17.76.70.0/23
17.76.72.0/21
17.76.80.0/21
17.76.88.0/21
17.76.96.0/21
17.76.120.0/21
17.76.120.0/24
17.76.122.0/24
17.78.64.0/18
17.78.128.0/23
17.78.152.0/21
17.78.159.0/24
17.78.160.0/21
17.78.160.0/24
17.78.168.0/22
17.78.172.0/24
17.78.173.0/24
17.78.176.0/24
17.78.177.0/24
17.78.178.0/24
17.78.179.0/24
17.78.180.0/22
17.78.187.0/24
17.79.0.0/20
17.80.143.0/24
17.80.151.0/24
17.91.112.0/21
17.91.232.0/21
17.97.192.0/21
17.121.64.0/23
17.122.128.0/21
17.122.136.0/22
17.122.160.0/19
17.122.243.0/24
17.122.244.0/22
17.123.128.0/21
17.132.9.0/24
17.132.12.0/24
17.132.13.0/24
17.132.14.0/24
17.132.15.0/24
17.132.20.0/24
17.132.32.0/22
17.132.36.0/24
17.132.37.0/24
17.132.40.0/22
17.132.44.0/23
17.132.46.0/24
17.132.48.0/22
17.132.148.0/24
17.132.149.0/24
17.132.176.0/20
17.132.209.0/24
17.132.224.0/23
17.132.226.0/24
17.140.45.0/24
17.168.120.0/24
17.168.192.0/21
17.168.200.0/24
17.168.204.0/22
17.168.224.0/23
17.188.8.0/22
17.188.12.0/23
17.188.16.0/23
17.188.18.0/23
17.188.72.0/23
17.188.74.0/24
17.190.0.0/15
17.192.0.0/15
17.194.0.0/16
17.211.32.0/19
17.211.64.0/19
17.230.0.0/15
17.233.80.0/20
17.233.96.0/20
17.233.160.0/21
17.233.168.0/21
17.233.210.0/23
17.235.176.0/20
17.242.0.0/20
17.242.64.0/20
17.242.80.0/20
17.242.96.0/21
17.242.112.0/21
17.242.128.0/21
17.242.136.0/21
17.248.128.0/20
17.248.152.0/21
17.248.155.0/24
17.248.158.0/24
17.248.159.0/24
17.248.162.0/24
17.248.189.0/24
17.248.206.0/24
17.248.219.0/24
17.249.232.0/21
17.249.240.0/21
17.250.118.0/23
17.250.118.0/24
17.250.119.0/24
17.250.120.0/21
17.250.122.0/23
17.252.112.0/20
17.252.240.0/20
17.253.142.0/24
144.178.48.0/21
144.178.56.0/21
144.178.2.0/24
17.0.117.0/24
17.15.16.0/22
17.27.72.0/21
17.29.39.0/24
17.29.48.0/24
17.29.52.0/24
17.29.53.0/24
17.29.55.0/24
17.29.59.0/24
17.29.60.0/24
17.29.61.0/24
17.29.62.0/24
17.29.63.0/24
17.29.64.0/20
17.29.80.0/20
17.29.96.0/20
17.29.114.0/24
17.29.115.0/24
17.29.116.0/22
17.29.123.0/24
17.29.128.0/20
17.29.226.0/23
17.29.240.0/24
17.29.241.0/24
17.29.242.0/24
17.29.243.0/24
17.29.244.0/24
17.29.245.0/24
17.29.246.0/24
17.29.247.0/24
17.29.248.0/24
17.29.251.0/24
17.29.252.0/24
17.33.5.0/24
17.33.9.0/24
17.33.13.0/24
17.33.14.0/23
17.33.15.0/24
17.33.16.0/24
17.33.17.0/24
17.33.18.0/24
17.33.20.0/24
17.33.31.0/24
17.33.32.0/20
17.33.64.0/20
17.33.132.0/22
17.40.32.0/20
17.40.240.0/23
17.43.104.0/21
17.44.28.0/22
17.44.32.0/22
17.44.132.0/22
17.44.164.0/22
17.44.168.0/22
17.44.172.0/22
17.45.72.0/22
17.45.140.0/22
17.57.0.0/18
17.57.144.0/22
17.58.52.0/24
17.58.56.0/24
17.58.252.0/24
17.58.253.0/24
17.58.254.0/24
17.58.255.0/24
17.67.116.0/22
17.69.80.0/22
17.76.104.0/21
17.78.174.0/23
17.91.184.0/21
17.91.192.0/21
17.97.0.0/17
17.97.160.0/20
17.97.200.0/21
17.97.208.0/20
17.97.224.0/19
17.99.0.0/17
17.99.128.0/21
17.99.192.0/18
17.100.0.0/16
17.102.0.0/15
17.104.0.0/15
17.121.128.0/22
17.121.132.0/24
17.121.133.0/24
17.121.136.0/21
17.121.144.0/20
17.121.160.0/19
17.121.192.0/18
17.122.240.0/23
17.122.242.0/24
17.129.80.0/20
17.129.96.0/24
17.130.128.0/22
17.130.132.0/24
17.130.144.0/20
17.130.160.0/20
17.130.176.0/22
17.130.180.0/24
17.130.208.0/22
17.130.240.0/20
17.132.8.0/22
17.132.18.0/23
17.150.172.0/24
17.157.0.0/22
17.157.0.0/24
17.157.4.0/24
17.157.5.0/24
17.157.8.0/21
17.157.16.0/22
17.160.0.0/16
17.160.171.0/24
17.161.0.0/17
17.161.48.0/21
17.161.64.0/19
17.161.128.0/18
17.161.192.0/18
17.162.0.0/15
17.168.0.0/14
17.168.2.0/24
17.170.36.0/24
17.171.11.0/24
17.171.78.0/23
17.172.0.0/16
17.173.0.0/16
17.174.0.0/16
17.175.0.0/18
17.175.64.0/19
17.175.128.0/18
17.175.192.0/19
17.178.2.0/23
17.178.8.0/21
17.178.10.0/23
17.178.34.0/24
17.188.19.0/24
17.188.176.0/24
17.188.177.0/24
17.188.216.0/21
17.188.224.0/22
17.188.228.0/24
17.188.229.0/24
17.189.128.0/17
17.196.0.0/16
17.200.192.0/22
17.200.222.0/24
17.200.223.0/24
17.210.6.0/24
17.235.64.0/18
17.242.144.0/21
17.242.152.0/21
17.242.168.0/21
17.248.151.0/24
17.248.215.0/24
17.250.128.0/20
17.250.144.0/20
17.250.160.0/22
17.250.192.0/24
17.250.193.0/24
17.253.18.0/23
17.253.74.0/24
17.253.110.0/24
63.92.224.0/19
63.92.224.0/20
63.92.240.0/20
65.199.22.0/23
17.33.19.0/24
17.14.0.0/18
17.14.64.0/19
17.24.96.0/21
17.26.8.0/21
17.26.8.0/24
17.27.176.0/21
17.28.80.0/21
17.29.57.0/24
17.33.48.0/23
17.39.72.0/21
17.39.80.0/21
17.39.88.0/22
17.39.112.0/22
17.39.116.0/22
17.39.144.0/22
17.44.20.0/22
17.56.9.0/24
17.58.202.0/23
17.67.64.0/22
17.110.64.0/21
17.110.72.0/21
17.110.80.0/21
17.110.88.0/21
17.110.96.0/20
17.110.128.0/21
17.110.150.0/23
17.110.152.0/22
17.110.156.0/22
17.110.160.0/20
17.110.192.0/21
17.110.200.0/21
17.110.208.0/20
17.110.232.0/22
17.110.240.0/20
17.111.64.0/19
17.111.128.0/17
17.157.8.0/22
17.157.12.0/24
17.171.58.0/23
17.171.193.0/24
17.171.194.0/24
17.174.0.0/20
17.174.16.0/21
17.174.24.0/22
17.174.28.0/24
17.174.29.0/24
17.174.30.0/23
17.174.32.0/19
17.174.64.0/18
17.174.128.0/17
17.178.48.0/22
17.178.52.0/22
17.178.56.0/23
17.178.58.0/23
17.178.64.0/20
17.178.80.0/20
17.178.96.0/24
17.178.98.0/24
17.178.99.0/24
17.178.100.0/22
17.178.104.0/23
17.178.106.0/23
17.178.108.0/24
17.178.109.0/24
17.178.110.0/23
17.178.112.0/21
17.178.120.0/24
17.178.126.0/23
17.178.128.0/17
17.200.220.0/24
17.200.221.0/24
17.13.0.0/18
17.13.64.0/20
17.25.160.0/21
17.27.64.0/21
17.27.160.0/21
17.28.16.0/21
17.28.136.0/21
17.33.112.0/22
17.39.64.0/21
17.39.96.0/20
17.39.128.0/20
17.44.72.0/21
17.45.80.0/21
17.91.120.0/21
17.91.240.0/21
17.110.64.0/18
17.110.128.0/17
17.157.1.0/24
17.160.74.0/23
17.169.249.0/24
17.169.254.0/23
17.171.120.0/24
17.178.40.0/21
17.178.48.0/20
17.178.64.0/19
17.178.96.0/20
17.178.120.0/22
17.242.176.0/23
17.248.176.0/23
17.0.118.0/24
17.1.185.0/24
17.80.0.0/16
17.25.72.0/21
17.140.24.0/21
92.118.32.0/22
194.126.240.0/24
17.7.64.0/24
17.7.68.0/24
17.7.72.0/24
17.13.128.0/17
17.25.96.0/21
17.25.96.0/24
17.25.128.0/21
17.25.184.0/21
17.26.176.0/21
17.27.232.0/21
17.28.0.0/21
17.40.184.0/24
17.45.76.0/22
17.45.88.0/22
17.69.104.0/23
17.77.224.0/20
17.138.0.0/17
17.139.128.0/17
17.156.0.0/16
17.160.22.0/24
17.160.82.0/23
17.242.179.0/24
17.249.248.0/22
144.178.55.0/24
17.0.181.0/24
17.28.32.0/21
17.28.40.0/21
17.28.72.0/21
17.29.33.0/24
17.44.68.0/22
17.69.106.0/24
17.91.208.0/21
17.130.184.0/22
17.171.88.0/24
17.242.178.0/24
17.255.252.0/24
17.130.0.0/17
17.130.0.0/18
17.130.0.0/19
17.130.0.0/20
17.130.0.0/21
17.130.0.0/22
17.130.0.0/23
17.130.0.0/24
17.78.224.0/20
17.77.0.0/17
17.77.128.0/17
17.77.32.0/21
17.77.140.0/23
17.77.168.0/22
17.77.142.0/23
17.77.208.0/21
17.77.136.0/23
17.77.128.0/23
17.77.132.0/23
17.77.152.0/22
17.77.80.0/21
17.77.88.0/21
17.77.64.0/21
17.77.192.0/21
17.77.160.0/22
17.77.144.0/22
17.77.176.0/21
17.77.56.0/22
17.77.240.0/20
17.77.20.0/23
17.77.48.0/22
17.67.128.0/18
17.70.0.0/15
17.74.0.0/15
17.78.128.0/21
17.78.140.0/22
17.78.144.0/21
17.78.192.0/20
17.64.0.0/16
17.65.0.0/16
17.66.0.0/16
17.67.192.0/22
17.67.200.0/22
17.72.0.0/16
17.72.64.0/19
17.72.96.0/19
17.79.0.0/16
17.130.0.0/16
17.78.32.0/21
17.78.224.0/19
17.78.208.0/21
17.69.0.0/16
17.67.0.0/16
17.67.244.0/22
17.67.212.0/22
17.77.0.0/16
17.72.64.0/18
17.67.224.0/20
17.68.0.0/16
17.67.252.0/22
17.67.208.0/22
17.67.198.0/23
17.69.240.0/21
17.67.196.0/23
17.73.0.0/16
17.67.204.0/22
17.69.232.0/22
17.69.192.0/20
17.69.236.0/22
17.69.33.0/24
17.235.208.0/20
17.69.32.0/24
17.69.224.0/21
17.235.192.0/20
17.69.208.0/21
17.67.104.0/21
17.67.80.0/20
17.67.48.0/20
17.67.32.0/20
17.0.0.0/8
204.179.120.0/24
17.0.0.0/9
17.0.0.0/8
17.128.0.0/9
192.35.50.0/24
17.83.128.0/17
17.83.0.0/17
17.80.0.0/16
17.85.0.0/16
17.253.0.0/24
17.253.8.0/24
17.253.16.0/24
17.253.34.0/24
17.253.32.0/24
17.253.64.0/24
17.253.196.0/24
17.253.199.0/24
17.253.48.0/24
17.253.49.0/24
17.253.18.0/24
17.253.20.0/24
17.253.22.0/24
17.253.66.0/24
17.253.68.0/24
17.253.80.0/24
17.253.70.0/23
17.253.56.0/23
17.253.66.0/23
17.253.88.0/23
17.253.20.0/23
17.253.44.0/23
17.253.46.0/23
17.253.54.0/23
17.253.92.0/23
17.253.100.0/23
144.178.32.0/24
17.253.0.0/23
17.253.2.0/23
17.253.4.0/23
17.253.6.0/23
17.253.8.0/23
17.253.10.0/23
17.253.12.0/23
17.253.14.0/23
17.253.16.0/23
17.253.22.0/23
17.253.24.0/23
17.253.26.0/23
17.253.28.0/23
17.253.30.0/23
17.253.32.0/23
17.253.34.0/23
17.253.36.0/23
17.253.38.0/23
17.253.40.0/23
17.253.42.0/23
17.253.48.0/23
17.253.50.0/23
17.253.52.0/23
17.253.58.0/23
17.253.62.0/23
17.253.64.0/23
17.253.68.0/23
17.253.74.0/23
17.253.76.0/23
17.253.78.0/23
17.253.80.0/23
17.253.82.0/23
17.253.84.0/23
17.253.86.0/23
17.253.90.0/23
17.253.94.0/23
17.253.96.0/23
17.253.98.0/23
17.253.102.0/23
17.253.106.0/23
17.253.108.0/23
17.253.112.0/23
17.253.114.0/23
17.253.116.0/23
17.253.72.0/23
17.253.104.0/23
17.253.110.0/23
17.253.122.0/23
17.253.119.0/24
17.253.118.0/24
17.253.124.0/23
17.253.121.0/24
17.253.120.0/23
17.253.120.0/24
